{
  "sections": {
    "banner": {
      "type": "faq-banner",
      "settings": {
        "bg_image": "shopify:\/\/shop_images\/sunset_swim.jpg",
        "bg_image_mobile": "shopify:\/\/shop_images\/sunset_swim_2x_b9ed50a8-850e-4203-a1d6-45350f12b438.jpg",
        "eyebrow_text": "Oceanworks",
        "title": "Frequently asked questions",
        "placeholder": "Type keywords to find answers",
        "description": "You can also browse the topics below to find what you are looking for."
      }
    },
    "35a62d82-46f2-4037-ab2d-df53e712c2f2": {
      "type": "faq-content",
      "blocks": {
        "c61363f1-1f7f-4adf-a40b-da91650dbeab": {
          "type": "faq-item",
          "settings": {
            "question": "How does Oceanworks help make ocean plastic successful?",
            "answer": "Oceanworks will empower you with all the tools you need to craft and tell a compelling ocean plastic sustainability story. For customers preparing to launch a new product,  Oceanworks provides impact metrics, media assets, press contact recommendations, and sales support FAQs. In addition, we help amplify your launch with cast studies, industry articles, webinars, sweepstakes and more. We look forward to the opportunity to get your product in front of our community of ocean plastic advocates and consumers."
          }
        },
        "ffedef18-0d94-4292-bd85-d0030ba92bee": {
          "type": "faq-item",
          "settings": {
            "question": "Can recycled plastic help me achieve carbon neutrality?",
            "answer": "Oceanworks will empower you with all the tools you need to craft and tell a compelling ocean plastic sustainability story. For customers preparing to launch a new product,  Oceanworks provides impact metrics, media assets, press contact recommendations, and sales support FAQs. In addition, we help amplify your launch with cast studies, industry articles, webinars, sweepstakes and more. We look forward to the opportunity to get your product in front of our community of ocean plastic advocates and consumers."
          }
        },
        "19466e53-6bcb-4700-b2aa-dc0b26862125": {
          "type": "faq-item",
          "settings": {
            "question": "Can Oceaworks supply resin to my nominated manufacturer?",
            "answer": "Oceanworks will empower you with all the tools you need to craft and tell a compelling ocean plastic sustainability story. For customers preparing to launch a new product,  Oceanworks provides impact metrics, media assets, press contact recommendations, and sales support FAQs. In addition, we help amplify your launch with cast studies, industry articles, webinars, sweepstakes and more. We look forward to the opportunity to get your product in front of our community of ocean plastic advocates and consumers."
          }
        },
        "381261e6-5625-4ae8-a819-5655fb3a4299": {
          "type": "faq-item",
          "settings": {
            "question": "Can Oceanworks design and manufacture my ocean plastic product?",
            "answer": "Oceanworks will empower you with all the tools you need to craft and tell a compelling ocean plastic sustainability story. For customers preparing to launch a new product,  Oceanworks provides impact metrics, media assets, press contact recommendations, and sales support FAQs. In addition, we help amplify your launch with cast studies, industry articles, webinars, sweepstakes and more. We look forward to the opportunity to get your product in front of our community of ocean plastic advocates and consumers."
          }
        },
        "b3779544-6f33-4778-9642-e07842a4eefd": {
          "type": "faq-item",
          "settings": {
            "question": "What is “Ocean-bound” plastic waste?",
            "answer": "Oceanworks will empower you with all the tools you need to craft and tell a compelling ocean plastic sustainability story. For customers preparing to launch a new product,  Oceanworks provides impact metrics, media assets, press contact recommendations, and sales support FAQs. In addition, we help amplify your launch with cast studies, industry articles, webinars, sweepstakes and more. We look forward to the opportunity to get your product in front of our community of ocean plastic advocates and consumers."
          }
        },
        "4d4c1fe2-fb2f-4942-85ba-c98402926575": {
          "type": "faq-item",
          "settings": {
            "question": "How does Oceanworks define recycled ocean plastic?",
            "answer": "Oceanworks will empower you with all the tools you need to craft and tell a compelling ocean plastic sustainability story. For customers preparing to launch a new product,  Oceanworks provides impact metrics, media assets, press contact recommendations, and sales support FAQs. In addition, we help amplify your launch with cast studies, industry articles, webinars, sweepstakes and more. We look forward to the opportunity to get your product in front of our community of ocean plastic advocates and consumers."
          }
        }
      },
      "block_order": [
        "c61363f1-1f7f-4adf-a40b-da91650dbeab",
        "ffedef18-0d94-4292-bd85-d0030ba92bee",
        "19466e53-6bcb-4700-b2aa-dc0b26862125",
        "381261e6-5625-4ae8-a819-5655fb3a4299",
        "b3779544-6f33-4778-9642-e07842a4eefd",
        "4d4c1fe2-fb2f-4942-85ba-c98402926575"
      ],
      "settings": {
        "faq_group_title": "General"
      }
    },
    "486c25ff-724e-46cd-9b42-a756dcb616bb": {
      "type": "faq-content",
      "blocks": {
        "ca193d3d-4409-4385-b7c2-a7d39f4864fa": {
          "type": "faq-item",
          "settings": {
            "question": "How does Oceanworks Impact+ align with brand marketing programs?",
            "answer": "Oceanworks Impac+ directly delivers the removal of at-risk plastic and can be tied to customer acquisition costs that a brand would be budgeting for anyway, at a base level, turning marketing spend into recycled plastic subsidies."
          }
        },
        "8966637c-a40a-4d1b-977f-a495b297e0dc": {
          "type": "faq-item",
          "settings": {
            "question": "What is proper disposal?",
            "answer": "Oceanworks Impac+ directly delivers the removal of at-risk plastic and can be tied to customer acquisition costs that a brand would be budgeting for anyway, at a base level, turning marketing spend into recycled plastic subsidies."
          }
        },
        "5b5770af-df59-4017-9324-b421afd612c8": {
          "type": "faq-item",
          "settings": {
            "question": "Is it possible to track Impac+ metrics from Impac+ to actual production of plastic products?",
            "answer": "Oceanworks Impac+ directly delivers the removal of at-risk plastic and can be tied to customer acquisition costs that a brand would be budgeting for anyway, at a base level, turning marketing spend into recycled plastic subsidies."
          }
        },
        "7c5fd39d-a654-4956-a7e7-82890617e09b": {
          "type": "faq-item",
          "settings": {
            "question": "If you use Impac+ fund for collection of a material that is recycled do you double count?",
            "answer": "Oceanworks Impac+ directly delivers the removal of at-risk plastic and can be tied to customer acquisition costs that a brand would be budgeting for anyway, at a base level, turning marketing spend into recycled plastic subsidies."
          }
        },
        "dc7bf0e7-cc2c-4a9e-b670-39ee190acee3": {
          "type": "faq-item",
          "settings": {
            "question": "How does Oceanworks count plastic pollution Impac+?",
            "answer": "Oceanworks Impac+ directly delivers the removal of at-risk plastic and can be tied to customer acquisition costs that a brand would be budgeting for anyway, at a base level, turning marketing spend into recycled plastic subsidies."
          }
        },
        "cd731ee1-2d7e-4701-a47b-e22e1317814e": {
          "type": "faq-item",
          "settings": {
            "question": "Can I increase my impact or go plastic neutral with Oceanworks?",
            "answer": "Oceanworks Impac+ directly delivers the removal of at-risk plastic and can be tied to customer acquisition costs that a brand would be budgeting for anyway, at a base level, turning marketing spend into recycled plastic subsidies."
          }
        }
      },
      "block_order": [
        "ca193d3d-4409-4385-b7c2-a7d39f4864fa",
        "8966637c-a40a-4d1b-977f-a495b297e0dc",
        "5b5770af-df59-4017-9324-b421afd612c8",
        "7c5fd39d-a654-4956-a7e7-82890617e09b",
        "dc7bf0e7-cc2c-4a9e-b670-39ee190acee3",
        "cd731ee1-2d7e-4701-a47b-e22e1317814e"
      ],
      "settings": {
        "faq_group_title": "Impac+ by Oceanworks"
      }
    },
    "a87f4ee7-e0bb-4f41-90ab-2c8e3ba956bb": {
      "type": "faq-content",
      "blocks": {
        "51adbef3-2705-4ffe-b8ae-6cdec501265d": {
          "type": "faq-item",
          "settings": {
            "question": "How does Oceanworks Impact+ align with brand marketing programs?",
            "answer": "Oceanworks Impac+ directly delivers the removal of at-risk plastic and can be tied to customer acquisition costs that a brand would be budgeting for anyway, at a base level, turning marketing spend into recycled plastic subsidies."
          }
        },
        "42d15306-5e22-47cb-9f84-3dce7bc22d88": {
          "type": "faq-item",
          "settings": {
            "question": "What is proper disposal?",
            "answer": "Oceanworks Impac+ directly delivers the removal of at-risk plastic and can be tied to customer acquisition costs that a brand would be budgeting for anyway, at a base level, turning marketing spend into recycled plastic subsidies."
          }
        },
        "ed8f2685-edbd-4024-8dcb-e2c2cad386b1": {
          "type": "faq-item",
          "settings": {
            "question": "Is it possible to track Impac+ metrics from Impac+ to actual production of plastic products?",
            "answer": "Oceanworks Impac+ directly delivers the removal of at-risk plastic and can be tied to customer acquisition costs that a brand would be budgeting for anyway, at a base level, turning marketing spend into recycled plastic subsidies."
          }
        },
        "a130308c-404a-4292-8501-bc5d43ba69cc": {
          "type": "faq-item",
          "settings": {
            "question": "If you use Impac+ fund for collection of a material that is recycled do you double count?",
            "answer": "Oceanworks Impac+ directly delivers the removal of at-risk plastic and can be tied to customer acquisition costs that a brand would be budgeting for anyway, at a base level, turning marketing spend into recycled plastic subsidies."
          }
        },
        "32f01342-61f3-4aa6-b365-05a678e28f78": {
          "type": "faq-item",
          "settings": {
            "question": "How does Oceanworks count plastic pollution Impac+?",
            "answer": "Oceanworks Impac+ directly delivers the removal of at-risk plastic and can be tied to customer acquisition costs that a brand would be budgeting for anyway, at a base level, turning marketing spend into recycled plastic subsidies."
          }
        },
        "bf4cd3c9-a50d-4cfc-be5b-adb8578e7ce9": {
          "type": "faq-item",
          "settings": {
            "question": "Can I increase my impact or go plastic neutral with Oceanworks?",
            "answer": "Oceanworks Impac+ directly delivers the removal of at-risk plastic and can be tied to customer acquisition costs that a brand would be budgeting for anyway, at a base level, turning marketing spend into recycled plastic subsidies."
          }
        }
      },
      "block_order": [
        "51adbef3-2705-4ffe-b8ae-6cdec501265d",
        "42d15306-5e22-47cb-9f84-3dce7bc22d88",
        "ed8f2685-edbd-4024-8dcb-e2c2cad386b1",
        "a130308c-404a-4292-8501-bc5d43ba69cc",
        "32f01342-61f3-4aa6-b365-05a678e28f78",
        "bf4cd3c9-a50d-4cfc-be5b-adb8578e7ce9"
      ],
      "settings": {
        "faq_group_title": "Materials"
      }
    },
    "a1fed9c7-cf14-4d65-ac19-96fb9ec0f19c": {
      "type": "faq-content",
      "blocks": {
        "e5304eb7-ffa7-49e2-bd58-ed67bb02cf15": {
          "type": "faq-item",
          "settings": {
            "question": "Who processes the plastic?",
            "answer": "Oceanworks Impac+ directly delivers the removal of at-risk plastic and can be tied to customer acquisition costs that a brand would be budgeting for anyway, at a base level, turning marketing spend into recycled plastic subsidies."
          }
        },
        "33c8d78e-3788-4b1f-b33d-c3898dc5d744": {
          "type": "faq-item",
          "settings": {
            "question": "Who collects the plastic?",
            "answer": "Oceanworks Impac+ directly delivers the removal of at-risk plastic and can be tied to customer acquisition costs that a brand would be budgeting for anyway, at a base level, turning marketing spend into recycled plastic subsidies."
          }
        },
        "608e28cf-44f3-4332-80b3-74be14568789": {
          "type": "faq-item",
          "settings": {
            "question": "Where does Oceanworks get the recycled plastic?",
            "answer": "Oceanworks Impac+ directly delivers the removal of at-risk plastic and can be tied to customer acquisition costs that a brand would be budgeting for anyway, at a base level, turning marketing spend into recycled plastic subsidies."
          }
        }
      },
      "block_order": [
        "e5304eb7-ffa7-49e2-bd58-ed67bb02cf15",
        "33c8d78e-3788-4b1f-b33d-c3898dc5d744",
        "608e28cf-44f3-4332-80b3-74be14568789"
      ],
      "settings": {
        "faq_group_title": "Supply Network"
      }
    },
    "3147855b-36b7-41a2-98ab-12e23fa08bfb": {
      "type": "faq-content",
      "blocks": {
        "01e2a6d2-0bcb-4af3-a87b-7f952e2e2c9c": {
          "type": "faq-item",
          "settings": {
            "question": "How can I sample material?",
            "answer": "Oceanworks Impac+ directly delivers the removal of at-risk plastic and can be tied to customer acquisition costs that a brand would be budgeting for anyway, at a base level, turning marketing spend into recycled plastic subsidies."
          }
        },
        "faaf7296-dc4b-4592-bd00-30782fb3cd2b": {
          "type": "faq-item",
          "settings": {
            "question": "Do I have to pay for samples?",
            "answer": "Oceanworks Impac+ directly delivers the removal of at-risk plastic and can be tied to customer acquisition costs that a brand would be budgeting for anyway, at a base level, turning marketing spend into recycled plastic subsidies."
          }
        },
        "a092e99d-27d7-4a07-9eaf-87e87ea72ff8": {
          "type": "faq-item",
          "settings": {
            "question": "Is sample pricing the same as bulk pricing?",
            "answer": "Oceanworks Impac+ directly delivers the removal of at-risk plastic and can be tied to customer acquisition costs that a brand would be budgeting for anyway, at a base level, turning marketing spend into recycled plastic subsidies."
          }
        }
      },
      "block_order": [
        "01e2a6d2-0bcb-4af3-a87b-7f952e2e2c9c",
        "faaf7296-dc4b-4592-bd00-30782fb3cd2b",
        "a092e99d-27d7-4a07-9eaf-87e87ea72ff8"
      ],
      "settings": {
        "faq_group_title": "Sampling - Material Evaluation"
      }
    },
    "56c16b0a-b488-4d1c-9330-aa75a3592655": {
      "type": "faq-content",
      "blocks": {
        "20923ef3-8b1b-47f7-bb5c-8d54d3292550": {
          "type": "faq-item",
          "settings": {
            "question": "How does Oceanworks verify material quality?",
            "answer": "Oceanworks Impac+ directly delivers the removal of at-risk plastic and can be tied to customer acquisition costs that a brand would be budgeting for anyway, at a base level, turning marketing spend into recycled plastic subsidies."
          }
        },
        "41dfb270-f707-4b3c-b671-49d5c114ed9b": {
          "type": "faq-item",
          "settings": {
            "question": "How is chain of custody maintained?",
            "answer": "Oceanworks Impac+ directly delivers the removal of at-risk plastic and can be tied to customer acquisition costs that a brand would be budgeting for anyway, at a base level, turning marketing spend into recycled plastic subsidies."
          }
        },
        "d744be9d-d425-43eb-9e4c-efc6f1409e05": {
          "type": "faq-item",
          "settings": {
            "question": "What documentation do you offer to support material claims?",
            "answer": "Oceanworks Impac+ directly delivers the removal of at-risk plastic and can be tied to customer acquisition costs that a brand would be budgeting for anyway, at a base level, turning marketing spend into recycled plastic subsidies."
          }
        },
        "6ffe622e-b92a-4895-aa4e-84b5f51a389b": {
          "type": "faq-item",
          "settings": {
            "question": "What supplier certifications are available?",
            "answer": "Oceanworks Impac+ directly delivers the removal of at-risk plastic and can be tied to customer acquisition costs that a brand would be budgeting for anyway, at a base level, turning marketing spend into recycled plastic subsidies."
          }
        },
        "a615fff4-886a-4fbb-97ea-2da23341f3c2": {
          "type": "faq-item",
          "settings": {
            "question": "How do you qualify suppliers and determine material origin?",
            "answer": "Oceanworks Impac+ directly delivers the removal of at-risk plastic and can be tied to customer acquisition costs that a brand would be budgeting for anyway, at a base level, turning marketing spend into recycled plastic subsidies."
          }
        }
      },
      "block_order": [
        "20923ef3-8b1b-47f7-bb5c-8d54d3292550",
        "41dfb270-f707-4b3c-b671-49d5c114ed9b",
        "d744be9d-d425-43eb-9e4c-efc6f1409e05",
        "6ffe622e-b92a-4895-aa4e-84b5f51a389b",
        "a615fff4-886a-4fbb-97ea-2da23341f3c2"
      ],
      "settings": {
        "faq_group_title": "Compliance - Oceanworks Guarantee"
      }
    },
    "a1640af9-bc66-40c7-815d-bfc0022a01d1": {
      "type": "faq-content",
      "blocks": {
        "6a6bbe84-6afb-4bfa-8003-1c29e56c1422": {
          "type": "faq-item",
          "settings": {
            "question": "I am a collection group. Can you take raw plastic that I am collecting?",
            "answer": "No. Non-commercial collection activities are made possible by the Impac+ funds. Commercial demand for PCR in products is required to incentivize recycling activity. Impac+ promotes the collection of plastic waste that would not have otherwise been collected, in turn helping place that material into the circular economy.Oceanworks Impac+ is entirely about the removal of the plastic from the environment that would not have been possible without additional incentives (additionality). Carbon and energy Impac+s ONLY come into play when the PCR replaces virgin in a product."
          }
        },
        "2ae56b20-0d88-4c19-97f4-255fa6f2f03c": {
          "type": "faq-item",
          "settings": {
            "question": "How do I become an approved Oceanworks supplier?",
            "answer": "No. Non-commercial collection activities are made possible by the Impac+ funds. Commercial demand for PCR in products is required to incentivize recycling activity. Impac+ promotes the collection of plastic waste that would not have otherwise been collected, in turn helping place that material into the circular economy.Oceanworks Impac+ is entirely about the removal of the plastic from the environment that would not have been possible without additional incentives (additionality). Carbon and energy Impac+s ONLY come into play when the PCR replaces virgin in a product."
          }
        }
      },
      "block_order": [
        "6a6bbe84-6afb-4bfa-8003-1c29e56c1422",
        "2ae56b20-0d88-4c19-97f4-255fa6f2f03c"
      ],
      "settings": {
        "faq_group_title": "For Collectors and Recyclers"
      }
    }
  },
  "order": [
    "banner",
    "35a62d82-46f2-4037-ab2d-df53e712c2f2",
    "486c25ff-724e-46cd-9b42-a756dcb616bb",
    "a87f4ee7-e0bb-4f41-90ab-2c8e3ba956bb",
    "a1fed9c7-cf14-4d65-ac19-96fb9ec0f19c",
    "3147855b-36b7-41a2-98ab-12e23fa08bfb",
    "56c16b0a-b488-4d1c-9330-aa75a3592655",
    "a1640af9-bc66-40c7-815d-bfc0022a01d1"
  ]
}