{
  "sections": {
    "resources-grid": {
      "type": "resources-grid",
      "blocks": {
        "df981369-6682-48c3-9ca0-093a6502a776": {
          "type": "resource-item",
          "settings": {
            "image": "shopify:\/\/shop_images\/Rectangle_1798_6.jpg",
            "eyebrow_text": "OCEANWORKS NEWS",
            "title": "THE Blog",
            "description": "We’re writing about all things recycled plastic, industry updates, and how we’re working with our customers to save our oceans.",
            "btn_text": "CHECK IT OUT",
            "btn_link": "shopify:\/\/blogs\/ocean-plastic-news"
          }
        },
        "f475c82a-7bda-40b9-936e-0adf78fa1f77": {
          "type": "resource-item",
          "settings": {
            "image": "shopify:\/\/shop_images\/Rectangle_1798_5.jpg",
            "eyebrow_text": "OCEANWORKS PARTNERSHIPS",
            "title": "Case Studies",
            "description": "Learn about some of our customers’ journeys and their Oceanworks campaigns.",
            "btn_text": "VIEW CASE STUDIES",
            "btn_link": "shopify:\/\/blogs\/ocean-plastic-case-studies"
          }
        },
        "333025be-19c5-4c3f-b098-54cb3d181e87": {
          "type": "resource-item",
          "settings": {
            "image": "shopify:\/\/shop_images\/OW_Resources_SustainableBrands_7a4b2f8a-6aee-4b6b-b917-a835008df0ae.jpg",
            "eyebrow_text": "OUR VIEWS",
            "title": "SUSTAINABLE BRANDS",
            "description": "On occasion we author articles on sustainablebrands.com. Here is a compilation of our work.",
            "btn_text": "See The Articles",
            "btn_link": "shopify:\/\/pages\/sustainable-brands"
          }
        },
        "39265c94-8552-48ea-88ff-a2ccf006579d": {
          "type": "resource-item",
          "settings": {
            "image": "shopify:\/\/shop_images\/Rectangle_1798_8.jpg",
            "eyebrow_text": "HOW IT WORKS",
            "title": "Collection areas",
            "description": "A closer look at Oceanworks® PCR Collection Areas and what they mean.",
            "btn_text": "Check it out",
            "btn_link": "shopify:\/\/pages\/pcr-collection-area-definitions"
          }
        }
      },
      "block_order": [
        "df981369-6682-48c3-9ca0-093a6502a776",
        "f475c82a-7bda-40b9-936e-0adf78fa1f77",
        "333025be-19c5-4c3f-b098-54cb3d181e87",
        "39265c94-8552-48ea-88ff-a2ccf006579d"
      ],
      "settings": {
        "bg_image": "shopify:\/\/shop_images\/Rectangle_1785_1.jpg",
        "bg_image_mobile": "shopify:\/\/shop_images\/Drak-to-Light_1_1.jpg",
        "eyebrow_text": "Dive into Oceanworks",
        "title": "Resources",
        "description": "At Oceanworks we have compiled a collection of ocean and averted plastic resources to help you get started with recycled plastics, incorporate recycled plastics into your supply chain, and effectively market your use of recycled plastics."
      }
    },
    "65c614c9-fa2f-47da-94eb-746cd6aa904a": {
      "type": "have-questions",
      "settings": {
        "title": "Questions?",
        "btn_text": "Check out our FAQs",
        "btn_link": "shopify:\/\/pages\/faqs"
      }
    }
  },
  "order": [
    "resources-grid",
    "65c614c9-fa2f-47da-94eb-746cd6aa904a"
  ]
}